<svg xmlns="http://www.w3.org/2000/svg" width="9.866" height="21.98" viewBox="0 0 9.866 21.98">
  <g id="_120-150-outline" data-name="120-150-outline" transform="translate(-563.989 -489.02)">
    <path id="Path_2220" data-name="Path 2220" d="M551.552,489.52h8.738l-1.961,15.942h-4.863Z" transform="translate(13)" fill="none" stroke="#000" stroke-width="1"/>
    <g id="Rectangle_1338" data-name="Rectangle 1338" transform="translate(566 508)" fill="none" stroke="#000" stroke-width="1">
      <rect width="6" height="3" stroke="none"/>
      <rect x="0.5" y="0.5" width="5" height="2" fill="none"/>
    </g>
  </g>
</svg>
