<svg xmlns="http://www.w3.org/2000/svg" width="11" height="33" viewBox="0 0 11 33">
  <g id="_180-outline" data-name="180-outline" transform="translate(-779 -478)">
    <g id="Rectangle_1342" data-name="Rectangle 1342" transform="translate(779 484)" fill="none" stroke="#000" stroke-width="1">
      <rect width="11" height="27" stroke="none"/>
      <rect x="0.5" y="0.5" width="10" height="26" fill="none"/>
    </g>
    <g id="Group_1" data-name="Group 1">
      <g id="Rectangle_1343" data-name="Rectangle 1343" transform="translate(782 478)" fill="none" stroke="#000" stroke-width="1">
        <rect width="4" height="4" stroke="none"/>
        <rect x="0.5" y="0.5" width="3" height="3" fill="none"/>
      </g>
      <line id="Line_1" data-name="Line 1" x2="3" transform="translate(779.5 479.5)" fill="none" stroke="#000" stroke-width="1"/>
    </g>
  </g>
</svg>
